Guide R pour Motus
…
Ces détections correspondent à des positions dans les Provinces maritimes du Canada (l’île de Sable, en Nouvelle-Écosse, et l’île Grand Manan, au Nouveau-Brunswick) et sont caractérisées par des séquences de 3 détections. Elles indiquent la présence probable de faux positifs. Commençons un compte des séquences précises en cause afin de les réunir pour effectuer un filtrage plus tard.

Si cela vous intéresse, vous pouvez exécuter de nouveau le code ci-dessus, mais avec la trame de données complète (df.alltags) contenant des séquences d’au moins 2 détections. Vous constaterez qu’il existe à ces positions d’autres détections de faux positifs qui sont déjà éliminées par filtrage en fonction d’une séquence d’au moins 2 détections (runLen > 2). Ces détections supplémentaires montrent une nouvelle fois qu’il y avait du bruit radioélectrique à ces positions pendant ces mois précis (décembre et janvier), ce qui a causé certaines détections de faux positifs.

Vous pourriez aussi être intéressés d’une manière plus générale à déterminer quelles données sont caractérisées seulement par de courtes séquences de détections. Par exemple, le code suivant indique la séquence de détections maximale à tous les sites par mois (pour les séquences d’au moins 2 détections [runLen > 2]).

df.alltags.sub %>% mutate(month = month(ts)) %>% group_by(recvDeployName, 
    month) %>% summarize(max.rl = max(runLen)) %>% 
    spread(key = month, value = max.rl)

## # A tibble: 49 x 9
## # Groups:   recvDeployName [49]
##    recvDeployName            `1`   `3`   `4`   `5`   `8`   `9`  `10`  `12`
##  * <chr>                   <dbl> <dbl> <dbl> <dbl> <dbl> <dbl> <dbl> <dbl>
##  1 Assateague State Park      NA    NA    NA NA       NA  6.00 NA       NA
##  2 BennettMeadow              NA    NA    NA NA       NA NA    11.0     NA
##  3 Binbrook_Conservation_…    NA    NA    NA  3.00    NA NA    NA       NA
##  4 BISE                       NA    NA    NA NA       NA NA     6.00    NA
##  5 Bombay Hook                NA    NA    NA NA       NA 53.0  NA       NA
##  6 Brier2                     NA    NA    NA NA       NA 29.0  NA       NA
##  7 BSC HQ                     NA    NA    NA 21.0     NA NA    NA       NA
##  8 BULL                       NA    NA    NA NA       NA 38.0   5.00    NA
##  9 Comeau (Marshalltown)      NA    NA    NA NA       NA  4.00 NA       NA
## 10 CONY                       NA    NA    NA NA       NA NA     7.00    NA
## # ... with 39 more rows
…
